%YAML 1.1
%TAG !u! tag:unity3d.com,2011:
--- !u!1045 &1
EditorBuildSettings:
  m_ObjectHideFlags: 0
  serializedVersion: 2
  m_Scenes:
  - enabled: 1
    path: Assets/Scenes/Main.unity
    guid: e70a0ed5677de42949d7906d9a52e739
  - enabled: 1
    path: Assets/Scenes/house_inside.unity
    guid: 68d8d87dfe57c44aca2c5e491e256cb5
  m_configObjects: {}
